…
-   query the LINDAS SPARQL endpoint
-   retrieve dataset metadata
-   explore RDF cube structures
-   download full observation datasets
-   perform full-text search across literals
-   work with multilingual metadata (DE, FR, IT, RM, EN)

# Examples

## List datasets available in LINDAS

``` r
lindasR::get_datasets()
#>
#> # A tibble: 273 × 9
#>    sub            name  description contactName endpoint landingPage dateCreated
#>    <chr>          <chr> <chr>       <chr>       <chr>    <chr>       <chr>      
#>  1 https://commu… Adve… "This data… BAKOM | OF… https:/… https://we… 2024-03-28 
#>  2 https://envir… Air … "The proje… Sektion Um… https:/… https://ww… 2022-05-30 
#>  3 https://commu… Anal… "This data… Fachabteil… https:/… https://ww… 2025-12-10 
#>  4 https://agric… Anim… "Whoever k… <NA>        <NA>     <NA>        2021-04-05 
#>  5 https://healt… Anim…  <NA>       Animal Exp… https:/… <NA>        2024-09-20 
#>  6 https://healt… Anim…  <NA>       Animal Exp… https:/… <NA>        2025-06-30 
#>  7 https://healt… Anim…  <NA>       Animal Exp… https:/… <NA>        2024-11-21 
#>  8 https://healt… Anim…  <NA>       Animal Exp… https:/… <NA>        2024-11-19 
#>  9 https://commu… Annu… "This data… BAKOM | OF… https:/… https://we… 2024-03-28 
#> 10 https://healt… Annu… "Origin in… Data Compe… https:/… <NA>        2024-09-20 
#> # ℹ 263 more rows
#> # ℹ 2 more variables: datePublished <chr>, dateModified <chr>
```

## Download a dataset

Many datasets in LINDAS are published as RDF cubes. `get_data()` automatically detects the cube structure and returns the observations as a tidy table.

``` r
lindasR::get_data(
  dataset_uri = "https://politics.ld.admin.ch/fc/cube-president",
  lang_pref = "de"
  )
#>   
#> # A tibble: 180 × 4
#>    Jahr  BundespräsidentIn               `Vize-PräsidentIn` `Vize-PräsidentIn 2`
#>    <chr> <chr>                           <chr>              <chr>               
#>  1 1848  Furrer, Jonas                   Druey, Daniel-Hen… https://cube.link/U…
#>  2 1849  Furrer, Jonas                   Druey, Daniel-Hen… https://cube.link/U…
#>  3 1850  Druey, Daniel-Henri             https://politics.… https://cube.link/U…
#>  4 1851  https://politics.ld.admin.ch/f… Furrer, Jonas      https://cube.link/U…
#>  5 1852  Furrer, Jonas                   Naeff, Wilhelm Ma… https://cube.link/U…
#>  6 1853  Naeff, Wilhelm Matthias         Frey-Herosé, Frie… https://cube.link/U…
#>  7 1854  Frey-Herosé, Friedrich          Ochsenbein, Ulrich https://cube.link/U…
#>  8 1855  Furrer, Jonas                   Stämpfli, Jakob    https://cube.link/U…
#>  9 1856  Stämpfli, Jakob                 Fornerod, Constant https://cube.link/U…
#> 10 1857  Fornerod, Constant              Furrer, Jonas      https://cube.link/U…
#> # ℹ 170 more rows
```

## Full-text search in the knowledge graph

Search across literals stored in LINDAS.

``` r
lindasR::search_lindas("Fraumünster")
#>
#> # A tibble: 177 × 4
#>    s                                        p                        l     score
#>    <chr>                                    <chr>                    <chr> <chr>
#>  1 https://culture.ld.admin.ch/ais/21857753 https://www.ica.org/sta… "Inh… 11.0…
#>  2 https://culture.ld.admin.ch/ais/21717293 https://www.ica.org/sta… "Inh… 11.0…
#>  3 https://culture.ld.admin.ch/ais/21687956 https://www.ica.org/sta… "Gen… 11.0…
#>  4 https://culture.ld.admin.ch/ais/21832777 https://www.ica.org/sta… "Inh… 11.0…
#>  5 https://culture.ld.admin.ch/ais/21774282 https://www.ica.org/sta… "Inh… 11.0…
#>  6 https://culture.ld.admin.ch/ais/30694535 https://www.ica.org/sta… "Gen… 10.4…
#>  7 https://culture.ld.admin.ch/ais/29658269 https://www.ica.org/sta… "Seq… 10.4…
#>  8 https://culture.ld.admin.ch/ais/21901733 https://www.ica.org/sta… "Inh… 10.4…
#>  9 https://culture.ld.admin.ch/ais/21796651 https://www.ica.org/sta… "Inh… 10.4…
#> 10 https://culture.ld.admin.ch/ais/30694534 https://www.ica.org/sta… "Gen… 10.4…
#> # ℹ 167 more rows
```
…
